{
    "levels": [
        "preprocessings",
        "detectors",
        "descriptors",
        "matchers",
        "filters",
        "transforms"
    ],
    "preprocessings": {
        "Gray": {
            "steps": {
                "Gray": {
                    "mode": {
                        "img": {
                            "in": "single",
                            "out": "single"
                        },
                        "mask": {
                            "in": null,
                            "out": null
                        }
                    },
                    "invert": false,
                    "as_ubyte": true
                }
            },
            "overlap_inverted": true,
            "pad_value": 1.0
        }
    },
    "pipelines": {
        "BRISK": {
            "method": "Traditional",
            "detectors": {
                "BRISK": {
                    "kwargs": {},
                    "method": "BRISK"
                }
            },
            "descriptors": {
                "Random": {
                    "kwargs": {},
                    "method": "Random",
                    "matching_distance": "norm_l2"
                },
                "Neighborhood": {
                    "kwargs": {},
                    "method": "Neighborhood",
                    "matching_distance": "norm_l2"
                },
                "SURF": {
                    "kwargs": {},
                    "method": "SURF",
                    "matching_distance": "norm_l2"
                },
                "BRISK": {
                    "kwargs": {},
                    "method": "BRISK",
                    "matching_distance": "norm_hamming"
                },
                "BRIEF": {
                    "kwargs": {},
                    "method": "BRIEF",
                    "matching_distance": "norm_hamming"
                },
                "O-BRIEF": {
                    "kwargs": {
                        "use_orientation": true
                    },
                    "method": "BRIEF",
                    "matching_distance": "norm_hamming"
                },
                "VGG": {
                    "kwargs": {
                        "scale_factor": 5.0
                    },
                    "method": "VGG",
                    "matching_distance": "norm_l2"
                },
                "SIFT": {
                    "kwargs": {},
                    "method": "SIFT",
                    "matching_distance": "norm_l2"
                },
                "FREAK": {
                    "kwargs": {},
                    "method": "FREAK",
                    "matching_distance": "norm_hamming"
                },
                "ORB": {
                    "kwargs": {},
                    "method": "ORB",
                    "matching_distance": "norm_hamming"
                }
            },
            "matchers": {
                "BruteForce": {
                    "kwargs": {
                        "cross_check": true
                    },
                    "method": "BruteForce"
                }
            },
            "filters": {
                "affRANSAC": {
                    "kwargs": {
                        "ransacReprojThreshold": 7
                    },
                    "method": "affRANSAC"
                }
            },
            "transforms": {
                "skAffine": {
                    "kwargs": {},
                    "method": "skAffine"
                }
            }
        },
        "FAST": {
            "method": "Traditional",
            "detectors": {
                "FAST": {
                    "kwargs": {},
                    "method": "FAST"
                }
            },
            "descriptors": {
                "Random": {
                    "kwargs": {},
                    "method": "Random",
                    "matching_distance": "norm_l2"
                },
                "Neighborhood": {
                    "kwargs": {},
                    "method": "Neighborhood",
                    "matching_distance": "norm_l2"
                },
                "SURF": {
                    "kwargs": {},
                    "method": "SURF",
                    "matching_distance": "norm_l2"
                },
                "BRISK": {
                    "kwargs": {},
                    "method": "BRISK",
                    "matching_distance": "norm_hamming"
                },
                "BRIEF": {
                    "kwargs": {},
                    "method": "BRIEF",
                    "matching_distance": "norm_hamming"
                },
                "O-BRIEF": {
                    "kwargs": {
                        "use_orientation": true
                    },
                    "method": "BRIEF",
                    "matching_distance": "norm_hamming"
                },
                "VGG": {
                    "kwargs": {
                        "scale_factor": 5.0
                    },
                    "method": "VGG",
                    "matching_distance": "norm_l2"
                },
                "SIFT": {
                    "kwargs": {},
                    "method": "SIFT",
                    "matching_distance": "norm_l2"
                },
                "FREAK": {
                    "kwargs": {},
                    "method": "FREAK",
                    "matching_distance": "norm_hamming"
                },
                "RootSIFT": {
                    "kwargs": {},
                    "method": "RootSIFT",
                    "matching_distance": "norm_l2"
                },
                "ORB": {
                    "kwargs": {},
                    "method": "ORB",
                    "matching_distance": "norm_hamming"
                }
            },
            "matchers": {
                "BruteForce": {
                    "kwargs": {
                        "cross_check": true
                    },
                    "method": "BruteForce"
                }
            },
            "filters": {
                "affRANSAC": {
                    "kwargs": {
                        "ransacReprojThreshold": 7
                    },
                    "method": "affRANSAC"
                }
            },
            "transforms": {
                "skAffine": {
                    "kwargs": {},
                    "method": "skAffine"
                }
            }
        },
        "SIFT": {
            "method": "Traditional",
            "detectors": {
                "SIFT": {
                    "kwargs": {},
                    "method": "SIFT"
                }
            },
            "descriptors": {
                "Random": {
                    "kwargs": {},
                    "method": "Random",
                    "matching_distance": "norm_l2"
                },
                "Neighborhood": {
                    "kwargs": {},
                    "method": "Neighborhood",
                    "matching_distance": "norm_l2"
                },
                "SURF": {
                    "kwargs": {},
                    "method": "SURF",
                    "matching_distance": "norm_l2"
                },
                "BRISK": {
                    "kwargs": {},
                    "method": "BRISK",
                    "matching_distance": "norm_hamming"
                },
                "BRIEF": {
                    "kwargs": {},
                    "method": "BRIEF",
                    "matching_distance": "norm_hamming"
                },
                "O-BRIEF": {
                    "kwargs": {
                        "use_orientation": true
                    },
                    "method": "BRIEF",
                    "matching_distance": "norm_hamming"
                },
                "VGG": {
                    "kwargs": {
                        "scale_factor": 5.0
                    },
                    "method": "VGG",
                    "matching_distance": "norm_l2"
                },
                "SIFT": {
                    "kwargs": {},
                    "method": "SIFT",
                    "matching_distance": "norm_l2"
                },
                "FREAK": {
                    "kwargs": {},
                    "method": "FREAK",
                    "matching_distance": "norm_hamming"
                },
                "RootSIFT": {
                    "kwargs": {},
                    "method": "RootSIFT",
                    "matching_distance": "norm_l2"
                }
            },
            "matchers": {
                "BruteForce": {
                    "kwargs": {
                        "cross_check": true
                    },
                    "method": "BruteForce"
                }
            },
            "filters": {
                "affRANSAC": {
                    "kwargs": {
                        "ransacReprojThreshold": 7
                    },
                    "method": "affRANSAC"
                }
            },
            "transforms": {
                "skAffine": {
                    "kwargs": {},
                    "method": "skAffine"
                }
            }
        },
        "SURF": {
            "method": "Traditional",
            "detectors": {
                "SURF": {
                    "kwargs": {},
                    "method": "SURF"
                }
            },
            "descriptors": {
                "Random": {
                    "kwargs": {},
                    "method": "Random",
                    "matching_distance": "norm_l2"
                },
                "Neighborhood": {
                    "kwargs": {},
                    "method": "Neighborhood",
                    "matching_distance": "norm_l2"
                },
                "SURF": {
                    "kwargs": {},
                    "method": "SURF",
                    "matching_distance": "norm_l2"
                },
                "BRISK": {
                    "kwargs": {},
                    "method": "BRISK",
                    "matching_distance": "norm_hamming"
                },
                "BRIEF": {
                    "kwargs": {},
                    "method": "BRIEF",
                    "matching_distance": "norm_hamming"
                },
                "O-BRIEF": {
                    "kwargs": {
                        "use_orientation": true
                    },
                    "method": "BRIEF",
                    "matching_distance": "norm_hamming"
                },
                "VGG": {
                    "kwargs": {
                        "scale_factor": 5.0
                    },
                    "method": "VGG",
                    "matching_distance": "norm_l2"
                },
                "SIFT": {
                    "kwargs": {},
                    "method": "SIFT",
                    "matching_distance": "norm_l2"
                },
                "FREAK": {
                    "kwargs": {},
                    "method": "FREAK",
                    "matching_distance": "norm_hamming"
                },
                "RootSIFT": {
                    "kwargs": {},
                    "method": "RootSIFT",
                    "matching_distance": "norm_l2"
                },
                "ORB": {
                    "kwargs": {},
                    "method": "ORB",
                    "matching_distance": "norm_hamming"
                }
            },
            "matchers": {
                "BruteForce": {
                    "kwargs": {
                        "cross_check": true
                    },
                    "method": "BruteForce"
                }
            },
            "filters": {
                "affRANSAC": {
                    "kwargs": {
                        "ransacReprojThreshold": 7
                    },
                    "method": "affRANSAC"
                }
            },
            "transforms": {
                "skAffine": {
                    "kwargs": {},
                    "method": "skAffine"
                }
            }
        },
        "ORB": {
            "method": "Traditional",
            "detectors": {
                "ORB": {
                    "kwargs": {},
                    "method": "ORB"
                }
            },
            "descriptors": {
                "Random": {
                    "kwargs": {},
                    "method": "Random",
                    "matching_distance": "norm_l2"
                },
                "Neighborhood": {
                    "kwargs": {},
                    "method": "Neighborhood",
                    "matching_distance": "norm_l2"
                },
                "SURF": {
                    "kwargs": {},
                    "method": "SURF",
                    "matching_distance": "norm_l2"
                },
                "BRISK": {
                    "kwargs": {},
                    "method": "BRISK",
                    "matching_distance": "norm_hamming"
                },
                "BRIEF": {
                    "kwargs": {},
                    "method": "BRIEF",
                    "matching_distance": "norm_hamming"
                },
                "O-BRIEF": {
                    "kwargs": {
                        "use_orientation": true
                    },
                    "method": "BRIEF",
                    "matching_distance": "norm_hamming"
                },
                "VGG": {
                    "kwargs": {
                        "scale_factor": 5.0
                    },
                    "method": "VGG",
                    "matching_distance": "norm_l2"
                },
                "ORB": {
                    "kwargs": {},
                    "method": "ORB",
                    "matching_distance": "norm_hamming"
                }
            },
            "matchers": {
                "BruteForce": {
                    "kwargs": {
                        "cross_check": true
                    },
                    "method": "BruteForce"
                }
            },
            "filters": {
                "affRANSAC": {
                    "kwargs": {
                        "ransacReprojThreshold": 7
                    },
                    "method": "affRANSAC"
                }
            },
            "transforms": {
                "skAffine": {
                    "kwargs": {},
                    "method": "skAffine"
                }
            }
        }
    }
}