{
    "generic": {
        "type": "generic",
        "preprocessings": [
            "Gray"
        ],
        "detectors": [
            "SIFT"
        ],
        "not_descriptors": [],
        "matchers": [
            "BruteForce"
        ],
        "filters": [
            "affRANSAC"
        ],
        "transforms": [
            "skAffine"
        ]
    },
    "descriptors": {
        "type": "descriptors",
        "preprocessings": [
            "Gray"
        ],
        "detectors": [
            "SIFT"
        ],
        "not_descriptors": [],
        "matchers": [
            "BruteForce"
        ],
        "filters": [
            "affRANSAC"
        ],
        "transforms": [
            "skAffine"
        ]
    }
}